{
  "@type": "Indicator",
  "term": {
    "@id": "damageToFreshwaterEcosystemsSpeciesYear",
    "@type": "Term"
  },
  "methodModel": {
    "@id": "recipe2016Individualist",
    "@type": "Term"
  },
  "value": 1.208e-13
}
