{
  "id": "fake-cycle",
  "type": "Cycle",
  "name": "fake cycle",
  "dataPrivate": false,
  "functionalUnit": "1 ha",
  "endDate": "2012",
  "cycleDuration": 365,
  "defaultSource": {
    "id": "fake-source",
    "type": "Source"
  },
  "site": {
    "id": "fake-site",
    "type": "Site",
    "country": {
      "@id": "GADM-NPL",
      "@type": "Term",
      "name": "Nepal"
    }
  },
  "products": [
    {
      "term": {
        "@id": "oatGrainInHusk",
        "@type": "Term",
        "termType": "crop"
      },
      "value": [
        2231.5
      ],
      "price": 0.227,
      "revenue": 506.5505,
      "currency": "USD",
      "@type": "Product"
    },
    {
      "term": {
        "@id": "wheatGrain",
        "@type": "Term",
        "termType": "crop"
      },
      "value": [
        2231.5
      ],
      "price": 14.7264037,
      "revenue": 32861.96985655,
      "currency": "USD",
      "@type": "Product"
    }
  ],
  "completeness": {
    "@type": "Completeness",
    "electricityFuel": true,
    "material": true,
    "fertiliser": true,
    "other": true,
    "pesticidesAntibiotics": true,
    "soilAmendments": true,
    "water": true,
    "products": true,
    "cropResidue": true,
    "animalFeed": true,
    "transport": false,
    "excreta": true,
    "waste": true,
    "liveAnimals": true,
    "operations": true
  },
  "defaultMethodClassification": "modelled",
  "defaultMethodClassificationDescription": "description"
}
