{
  "years": [2019, 2020],
  "geospatialDatabase": {
    "clayContent": 10,
    "drainageClass": 10,
    "ecoClimateZone": 10,
    "erodibility": 10,
    "heavyWinterPrecipitation": 10,
    "histosol": 10,
    "nutrientLossToAquaticEnvironment": 10,
    "organicCarbonPerKgSoil": 10,
    "potentialEvapotranspirationAnnual": {
      "2019": 10,
      "2020": 10
    },
    "potentialEvapotranspirationLongTermAnnualMean": 10,
    "precipitationAnnual": {
      "2019": 10,
      "2020": 10
    },
    "precipitationLongTermAnnualMean": 10,
    "sandContent": 10,
    "slope": 10,
    "slopeLength": 10,
    "soilPh": 10,
    "temperatureAnnual": {
      "2019": 10,
      "2020": 10
    },
    "temperatureLongTermAnnualMean": 10,
    "totalNitrogenPerKgSoil": 10,
    "totalPhosphorusPerKgSoil": 10,
    "waterDepth": 10,
    "aware": 10,
    "ecoregion": 10
  }
}
