[
  {
    "@type": "Input",
    "term": {
      "@type": "Term",
      "@id": "petrol"
    },
    "value": [
      40
    ],
    "operation": {
      "@id": "soilPreparationWithDiscHarrow",
      "@type": "Term",
      "termType": "operation"
    },
    "model": {
      "@type": "Term",
      "@id": "agribalyse2016"
    }
  },
  {
    "@type": "Input",
    "term": {
      "@type": "Term",
      "@id": "diesel"
    },
    "value": [
      405
    ],
    "operation": {
      "@id": "harrowingWithTineCultivator",
      "@type": "Term",
      "termType": "operation"
    },
    "model": {
      "@type": "Term",
      "@id": "agribalyse2016"
    }
  },
  {
    "@type": "Input",
    "term": {
      "@type": "Term",
      "@id": "diesel"
    },
    "value": [
      166.1175
    ],
    "operation": {
      "@id": "cuttingTreesMachineUnspecified",
      "@type": "Term",
      "termType": "operation"
    },
    "model": {
      "@type": "Term",
      "@id": "agribalyse2016"
    }
  }
]
