{
  "@type": "Indicator",
  "term": {
    "@type": "Term",
    "@id": "damageToResourceAvailability"
  },
  "methodModel": {
    "@type": "Term",
    "@id": "recipe2016Hierarchist"
  },
  "value": 0.00010344827586206896
}
