{
  "@type": "Completeness",
  "electricityFuel": false,
  "material": true,
  "fertiliser": false,
  "other": true,
  "pesticidesAntibiotics": false,
  "soilAmendments": true,
  "water": false,
  "products": false,
  "cropResidue": true,
  "animalFeed": true,
  "transport": false,
  "excreta": true,
  "waste": true,
  "liveAnimals": true,
  "operations": true
}
