[
  {
    "min": [
      5
    ],
    "max": [
      10
    ],
    "value": [
      7.5
    ],
    "term": {
      "@id": "sandContent",
      "@type": "Term"
    },
    "statsDefinition": "spatial",
    "@type": "Measurement",
    "methodClassification": "modelled using other physical measurements"
  }
]
