[
  {
    "@type": "Practice",
    "term": {
      "@type": "Term",
      "@id": "feedConversionRatioCarbon"
    },
    "value": [
      0.7176414736842102
    ]
  },
  {
    "@type": "Practice",
    "term": {
      "@type": "Term",
      "@id": "feedConversionRatioDryMatter"
    },
    "value": [
      1.7382456140350864
    ]
  },
  {
    "@type": "Practice",
    "term": {
      "@type": "Term",
      "@id": "feedConversionRatioEnergy"
    },
    "value": [
      34.17340350877191
    ]
  },
  {
    "@type": "Practice",
    "term": {
      "@type": "Term",
      "@id": "feedConversionRatioFedWeight"
    },
    "value": [
      1.9883040935672502
    ]
  },
  {
    "@type": "Practice",
    "term": {
      "@type": "Term",
      "@id": "feedConversionRatioNitrogen"
    },
    "value": [
      0.04996320935672514
    ]
  }
]
