{
  "@id": "fake-site",
  "@type": "Site",
  "siteType": "cropland",
  "country": {
    "@id": "GADM-FRA",
    "@type": "Term",
    "name": "France",
    "termType": "region"
  },
  "measurements": [
    {
      "@type": "Measurement",
      "term": {
        "@type": "Term",
        "@id": "soilBulkDensity",
        "name": "Soil bulk density",
        "units": "tonnes / m3"
      },
      "value": [
        1.55
      ],
      "methodClassification": "on-site physical measurement"
    },
    {
      "@type": "Measurement",
      "term": {
        "@type": "Term",
        "@id": "organicCarbonPerKgSoil",
        "name": "Organic carbon (per kg soil)",
        "units": "g C / kg soil"
      },
      "value": [
        26
      ],
      "methodClassification": "on-site physical measurement"
    },
    {
      "@type": "Measurement",
      "term": {
        "@type": "Term",
        "@id": "soilBulkDensity",
        "name": "Soil bulk density",
        "units": "tonnes / m3"
      },
      "value": [
        1.55
      ],
      "depthUpper": 0,
      "depthLower": 30,
      "methodClassification": "on-site physical measurement"
    },
    {
      "@type": "Measurement",
      "term": {
        "@type": "Term",
        "@id": "organicCarbonPerKgSoil",
        "name": "Organic carbon (per kg soil)",
        "units": "g C / kg soil"
      },
      "value": [
        26
      ],
      "depthUpper": 0,
      "depthLower": 30,
      "methodClassification": "on-site physical measurement"
    },
    {
      "@type": "Measurement",
      "term": {
        "@type": "Term",
        "@id": "soilBulkDensity",
        "name": "Soil bulk density",
        "units": "tonnes / m3"
      },
      "value": [
        1.55
      ],
      "depthUpper": 10,
      "depthLower": 40,
      "methodClassification": "on-site physical measurement"
    },
    {
      "@type": "Measurement",
      "term": {
        "@type": "Term",
        "@id": "organicCarbonPerKgSoil",
        "name": "Organic carbon (per kg soil)",
        "units": "g C / kg soil"
      },
      "value": [
        26
      ],
      "depthUpper": 20,
      "depthLower": 60,
      "methodClassification": "on-site physical measurement"
    }
  ],
  "dataPrivate": true
}
