[
  {
    "@type": "Product",
    "term": {
      "@type": "Term",
      "@id": "concentrateFeedBlend"
    },
    "primary": true,
    "properties": [
      {
        "@type": "Property",
        "term": {
          "@type": "Term",
          "@id": "crudeProteinContent"
        },
        "value": 13.205329501060385
      },
      {
        "@type": "Property",
        "term": {
          "@type": "Term",
          "@id": "digestibleEnergyRuminants"
        },
        "value": 13.85217549357568
      },
      {
        "@type": "Property",
        "term": {
          "@type": "Term",
          "@id": "digestibleEnergyPoultry"
        },
        "value": 13.85217549357568
      },
      {
        "@type": "Property",
        "term": {
          "@type": "Term",
          "@id": "digestibleEnergyPigs"
        },
        "value": 13.913785411318228
      },
      {
        "@type": "Property",
        "term": {
          "@type": "Term",
          "@id": "digestibleEnergyRabbits"
        },
        "value": 12.897493916731777
      },
      {
        "@type": "Property",
        "term": {
          "@type": "Term",
          "@id": "dryMatter"
        },
        "value": 87.4086951668713
      },
      {
        "@type": "Property",
        "term": {
          "@type": "Term",
          "@id": "energyContentHigherHeatingValue"
        },
        "value": 16.351126130148455
      },
      {
        "@type": "Property",
        "term": {
          "@type": "Term",
          "@id": "energyDigestibilityPoultry"
        },
        "value": 85.17237414890056
      },
      {
        "@type": "Property",
        "term": {
          "@type": "Term",
          "@id": "energyDigestibilityRabbits"
        },
        "value": 68.9861959482085
      },
      {
        "@type": "Property",
        "term": {
          "@type": "Term",
          "@id": "energyDigestibilityPigs"
        },
        "value": 74.43185623395466
      },
      {
        "@type": "Property",
        "term": {
          "@type": "Term",
          "@id": "energyDigestibilityRuminants"
        },
        "value": 85.17237414890056
      },
      {
        "@type": "Property",
        "term": {
          "@type": "Term",
          "@id": "neutralDetergentFibreContent"
        },
        "value": 10.407186775305547
      },
      {
        "@type": "Property",
        "term": {
          "@type": "Term",
          "@id": "nitrogenContent"
        },
        "value": 2.112852720169662
      },
      {
        "@type": "Property",
        "term": {
          "@type": "Term",
          "@id": "phosphorusContentAsP"
        },
        "value": 0.36110812590690916
      }
    ]
  }
]
