{
  "id": "cycle-2",
  "type": "Cycle",
  "name": "fake cycle",
  "dataPrivate": true,
  "functionalUnit": "1 ha",
  "endDate": "2009",
  "cycleDuration": 365,
  "site": {
    "id": "fake-site",
    "type": "Site"
  },
  "products": [
    {
      "term": {
        "@id": "wheatGrain",
        "@type": "Term"
      },
      "properties": [
        {
          "term": {
            "@type": "Term",
            "name": "Dry matter",
            "termType": "property",
            "@id": "dryMatter",
            "units": "%"
          },
          "value": 50,
          "@type": "Property"
        }
      ],
      "@type": "Product"
    }
  ],
  "completeness": {
    "@type": "Completeness",
    "electricityFuel": true,
    "material": true,
    "fertiliser": true,
    "other": true,
    "pesticidesAntibiotics": true,
    "soilAmendments": true,
    "water": true,
    "products": true,
    "cropResidue": true,
    "animalFeed": true,
    "transport": false,
    "excreta": true,
    "waste": true,
    "liveAnimals": true,
    "operations": true
  },
  "defaultMethodClassification": "modelled",
  "defaultMethodClassificationDescription": "description"
}
