[
  {
    "@type": "Measurement",
    "term": {
      "@type": "Term",
      "@id": "potentialEvapotranspirationMonthly"
    },
    "value": [
      4.3,
      36.2,
      121.89999999999998,
      54.400000000000006,
      64.2,
      26.7,
      83,
      11.699999999999996,
      41.3,
      49,
      25.100000000000005,
      34.1,
      29.799999999999997,
      53.19999999999999,
      15.499999999999998,
      80.6,
      40.5,
      14.5,
      44.80000000000002,
      79.19999999999999,
      53.80000000000002
    ],
    "dates": [
      "2020-04",
      "2020-05",
      "2020-06",
      "2020-07",
      "2020-08",
      "2020-09",
      "2020-10",
      "2020-11",
      "2020-12",
      "2021-01",
      "2021-02",
      "2021-03",
      "2021-04",
      "2021-05",
      "2021-06",
      "2021-07",
      "2021-08",
      "2021-09",
      "2021-10",
      "2021-11",
      "2021-12"
    ],
    "methodClassification": "modelled using other physical measurements"
  }
]
