[
  {
    "@type": "Measurement",
    "term": {
      "@type": "Term",
      "@id": "organicCarbonPerHa"
    },
    "method": {
      "@type": "Term",
      "@id": "ipcc2019"
    },
    "value": [
      82511.50742654485
    ],
    "depthUpper": 0,
    "depthLower": 30,
    "dates": [
      "1963-12-31"
    ],
    "methodClassification": "tier 2 model"
  },
  {
    "@type": "Measurement",
    "term": {
      "@type": "Term",
      "@id": "organicCarbonPerHa"
    },
    "method": {
      "@type": "Term",
      "@id": "ipcc2019"
    },
    "value": [
      82534.55409019256
    ],
    "depthUpper": 0,
    "depthLower": 30,
    "dates": [
      "1964-12-31"
    ],
    "methodClassification": "tier 2 model"
  },
  {
    "@type": "Measurement",
    "term": {
      "@type": "Term",
      "@id": "organicCarbonPerHa"
    },
    "method": {
      "@type": "Term",
      "@id": "ipcc2019"
    },
    "value": [
      82696.82027279247
    ],
    "depthUpper": 0,
    "depthLower": 30,
    "dates": [
      "1965-12-31"
    ],
    "methodClassification": "tier 2 model"
  },
  {
    "@type": "Measurement",
    "term": {
      "@type": "Term",
      "@id": "organicCarbonPerHa"
    },
    "method": {
      "@type": "Term",
      "@id": "ipcc2019"
    },
    "value": [
      82626.03784812862
    ],
    "depthUpper": 0,
    "depthLower": 30,
    "dates": [
      "1966-12-31"
    ],
    "methodClassification": "tier 2 model"
  },
  {
    "@type": "Measurement",
    "term": {
      "@type": "Term",
      "@id": "organicCarbonPerHa"
    },
    "method": {
      "@type": "Term",
      "@id": "ipcc2019"
    },
    "value": [
      83281.89957368899
    ],
    "depthUpper": 0,
    "depthLower": 30,
    "dates": [
      "1967-12-31"
    ],
    "methodClassification": "tier 2 model"
  },
  {
    "@type": "Measurement",
    "term": {
      "@type": "Term",
      "@id": "organicCarbonPerHa"
    },
    "method": {
      "@type": "Term",
      "@id": "ipcc2019"
    },
    "value": [
      82472.74412434253
    ],
    "depthUpper": 0,
    "depthLower": 30,
    "dates": [
      "1968-12-31"
    ],
    "methodClassification": "tier 2 model"
  },
  {
    "@type": "Measurement",
    "term": {
      "@type": "Term",
      "@id": "organicCarbonPerHa"
    },
    "method": {
      "@type": "Term",
      "@id": "ipcc2019"
    },
    "value": [
      82702.9319432849
    ],
    "depthUpper": 0,
    "depthLower": 30,
    "dates": [
      "1969-12-31"
    ],
    "methodClassification": "tier 2 model"
  },
  {
    "@type": "Measurement",
    "term": {
      "@type": "Term",
      "@id": "organicCarbonPerHa"
    },
    "method": {
      "@type": "Term",
      "@id": "ipcc2019"
    },
    "value": [
      82789.22683509752
    ],
    "depthUpper": 0,
    "depthLower": 30,
    "dates": [
      "1970-12-31"
    ],
    "methodClassification": "tier 2 model"
  },
  {
    "@type": "Measurement",
    "term": {
      "@type": "Term",
      "@id": "organicCarbonPerHa"
    },
    "method": {
      "@type": "Term",
      "@id": "ipcc2019"
    },
    "value": [
      82175.03538752007
    ],
    "depthUpper": 0,
    "depthLower": 30,
    "dates": [
      "1971-12-31"
    ],
    "methodClassification": "tier 2 model"
  },
  {
    "@type": "Measurement",
    "term": {
      "@type": "Term",
      "@id": "organicCarbonPerHa"
    },
    "method": {
      "@type": "Term",
      "@id": "ipcc2019"
    },
    "value": [
      82678.28371527062
    ],
    "depthUpper": 0,
    "depthLower": 30,
    "dates": [
      "1972-12-31"
    ],
    "methodClassification": "tier 2 model"
  },
  {
    "@type": "Measurement",
    "term": {
      "@type": "Term",
      "@id": "organicCarbonPerHa"
    },
    "method": {
      "@type": "Term",
      "@id": "ipcc2019"
    },
    "value": [
      81996.05473040008
    ],
    "depthUpper": 0,
    "depthLower": 30,
    "dates": [
      "1973-12-31"
    ],
    "methodClassification": "tier 2 model"
  },
  {
    "@type": "Measurement",
    "term": {
      "@type": "Term",
      "@id": "organicCarbonPerHa"
    },
    "method": {
      "@type": "Term",
      "@id": "ipcc2019"
    },
    "value": [
      81405.77648942577
    ],
    "depthUpper": 0,
    "depthLower": 30,
    "dates": [
      "1974-12-31"
    ],
    "methodClassification": "tier 2 model"
  },
  {
    "@type": "Measurement",
    "term": {
      "@type": "Term",
      "@id": "organicCarbonPerHa"
    },
    "method": {
      "@type": "Term",
      "@id": "ipcc2019"
    },
    "value": [
      81587.94479740928
    ],
    "depthUpper": 0,
    "depthLower": 30,
    "dates": [
      "1975-12-31"
    ],
    "methodClassification": "tier 2 model"
  },
  {
    "@type": "Measurement",
    "term": {
      "@type": "Term",
      "@id": "organicCarbonPerHa"
    },
    "method": {
      "@type": "Term",
      "@id": "ipcc2019"
    },
    "value": [
      82318.9226463805
    ],
    "depthUpper": 0,
    "depthLower": 30,
    "dates": [
      "1976-12-31"
    ],
    "methodClassification": "tier 2 model"
  },
  {
    "@type": "Measurement",
    "term": {
      "@type": "Term",
      "@id": "organicCarbonPerHa"
    },
    "method": {
      "@type": "Term",
      "@id": "ipcc2019"
    },
    "value": [
      82384.86493390011
    ],
    "depthUpper": 0,
    "depthLower": 30,
    "dates": [
      "1977-12-31"
    ],
    "methodClassification": "tier 2 model"
  },
  {
    "@type": "Measurement",
    "term": {
      "@type": "Term",
      "@id": "organicCarbonPerHa"
    },
    "method": {
      "@type": "Term",
      "@id": "ipcc2019"
    },
    "value": [
      82103.97294099689
    ],
    "depthUpper": 0,
    "depthLower": 30,
    "dates": [
      "1978-12-31"
    ],
    "methodClassification": "tier 2 model"
  },
  {
    "@type": "Measurement",
    "term": {
      "@type": "Term",
      "@id": "organicCarbonPerHa"
    },
    "method": {
      "@type": "Term",
      "@id": "ipcc2019"
    },
    "value": [
      81824.95129387689
    ],
    "depthUpper": 0,
    "depthLower": 30,
    "dates": [
      "1979-12-31"
    ],
    "methodClassification": "tier 2 model"
  },
  {
    "@type": "Measurement",
    "term": {
      "@type": "Term",
      "@id": "organicCarbonPerHa"
    },
    "method": {
      "@type": "Term",
      "@id": "ipcc2019"
    },
    "value": [
      81808.56932613162
    ],
    "depthUpper": 0,
    "depthLower": 30,
    "dates": [
      "1980-12-31"
    ],
    "methodClassification": "tier 2 model"
  },
  {
    "@type": "Measurement",
    "term": {
      "@type": "Term",
      "@id": "organicCarbonPerHa"
    },
    "method": {
      "@type": "Term",
      "@id": "ipcc2019"
    },
    "value": [
      81780.07045853494
    ],
    "depthUpper": 0,
    "depthLower": 30,
    "dates": [
      "1981-12-31"
    ],
    "methodClassification": "tier 2 model"
  },
  {
    "@type": "Measurement",
    "term": {
      "@type": "Term",
      "@id": "organicCarbonPerHa"
    },
    "method": {
      "@type": "Term",
      "@id": "ipcc2019"
    },
    "value": [
      82323.78631350589
    ],
    "depthUpper": 0,
    "depthLower": 30,
    "dates": [
      "1982-12-31"
    ],
    "methodClassification": "tier 2 model"
  },
  {
    "@type": "Measurement",
    "term": {
      "@type": "Term",
      "@id": "organicCarbonPerHa"
    },
    "method": {
      "@type": "Term",
      "@id": "ipcc2019"
    },
    "value": [
      81785.19123708998
    ],
    "depthUpper": 0,
    "depthLower": 30,
    "dates": [
      "1983-12-31"
    ],
    "methodClassification": "tier 2 model"
  }
]
