{
  "@type": "Indicator",
  "term": {
    "@type": "Term",
    "@id": "damageToTerrestrialEcosystemsTerrestrialAcidification"
  },
  "methodModel": {
    "@type": "Term",
    "@id": "lcImpactCertainEffects100Years"
  },
  "value": 6.721265803708505e-16
}
