{
  "@id": "cycle",
  "@type": "Cycle",
  "site": {
    "@id": "site",
    "@type": "Site",
    "siteType": "permanent pasture"
  },
  "functionalUnit": "1 ha",
  "cycleDuration": 365,
  "endDate": "2020",
  "completeness": {
    "@type": "Completeness",
    "electricityFuel": true,
    "material": true,
    "fertiliser": true,
    "other": true,
    "pesticidesAntibiotics": true,
    "soilAmendments": true,
    "water": true,
    "products": true,
    "cropResidue": true,
    "animalFeed": false,
    "transport": false,
    "excreta": true,
    "waste": true,
    "liveAnimals": true,
    "operations": true
  },
  "defaultMethodClassification": "modelled",
  "animals": [
    {
      "@type": "Animal",
      "term": {
        "@type": "Term",
        "@id": "beefCattleBull",
        "termType": "liveAnimal",
        "units": "number"
      },
      "value": 1,
      "referencePeriod": "average",
      "properties": [
        {
          "@type": "Property",
          "term": {
            "@type": "Term",
            "@id": "liveweightPerHead",
            "units": "kg liveweight / head"
          },
          "value": 650
        },
        {
          "@type": "Property",
          "term": {
            "@type": "Term",
            "@id": "weightAtMaturity",
            "units": "kg liveweight / head"
          },
          "value": 650
        },
        {
          "@type": "Property",
          "term": {
            "@type": "Term",
            "@id": "hoursWorkedPerDay",
            "units": "hours / head / day"
          },
          "value": 3
        }
      ]
    },
    {
      "@type": "Animal",
      "term": {
        "@type": "Term",
        "@id": "beefCattleCowDry",
        "termType": "liveAnimal",
        "units": "number"
      },
      "value": 4,
      "referencePeriod": "average",
      "properties": [
        {
          "@type": "Property",
          "term": {
            "@type": "Term",
            "@id": "liveweightPerHead",
            "units": "kg liveweight / head"
          },
          "value": 430
        },
        {
          "@type": "Property",
          "term": {
            "@type": "Term",
            "@id": "weightAtMaturity",
            "units": "kg liveweight / head"
          },
          "value": 430
        },
        {
          "@type": "Property",
          "term": {
            "@type": "Term",
            "@id": "pregnancyRateTotal",
            "units": "%"
          },
          "value": 50
        }
      ]
    },
    {
      "@type": "Animal",
      "term": {
        "@type": "Term",
        "@id": "beefCattleCowLactating",
        "termType": "liveAnimal",
        "units": "number"
      },
      "value": 3,
      "referencePeriod": "average",
      "properties": [
        {
          "@type": "Property",
          "term": {
            "@type": "Term",
            "@id": "liveweightPerHead",
            "units": "kg liveweight / head"
          },
          "value": 430
        },
        {
          "@type": "Property",
          "term": {
            "@type": "Term",
            "@id": "weightAtMaturity",
            "units": "kg liveweight / head"
          },
          "value": 430
        },
        {
          "@type": "Property",
          "term": {
            "@type": "Term",
            "@id": "pregnancyRateTotal",
            "units": "%"
          },
          "value": 40
        }
      ],
      "practices": [
        {
          "@type": "Practice",
          "term": {
            "@type": "Term",
            "@id": "milkYieldPerCowRaw",
            "units": "kg / day"
          },
          "value": [
            3
          ],
          "properties": [
            {
              "@type": "Property",
              "term": {
                "@type": "Term",
                "@id": "fatContent",
                "units": "%"
              },
              "value": 4.5
            }
          ]
        }
      ]
    },
    {
      "@type": "Animal",
      "term": {
        "@type": "Term",
        "@id": "beefCattleHeifer",
        "termType": "liveAnimal",
        "units": "number"
      },
      "value": 2,
      "referencePeriod": "average",
      "properties": [
        {
          "@type": "Property",
          "term": {
            "@type": "Term",
            "@id": "liveweightPerHead",
            "units": "kg liveweight / head"
          },
          "value": 350
        },
        {
          "@type": "Property",
          "term": {
            "@type": "Term",
            "@id": "weightAtMaturity",
            "units": "kg liveweight / head"
          },
          "value": 430
        },
        {
          "@type": "Property",
          "term": {
            "@type": "Term",
            "@id": "liveweightGain",
            "units": "kg liveweight / head / day"
          },
          "value": 0.3
        },
        {
          "@type": "Property",
          "term": {
            "@type": "Term",
            "@id": "pregnancyRateTotal",
            "units": "%"
          },
          "value": 45
        }
      ]
    },
    {
      "@type": "Animal",
      "term": {
        "@type": "Term",
        "@id": "beefCattleSteer",
        "termType": "liveAnimal",
        "units": "number"
      },
      "value": 2,
      "referencePeriod": "average",
      "properties": [
        {
          "@type": "Property",
          "term": {
            "@type": "Term",
            "@id": "liveweightPerHead",
            "units": "kg liveweight / head"
          },
          "value": 500
        },
        {
          "@type": "Property",
          "term": {
            "@type": "Term",
            "@id": "weightAtMaturity",
            "units": "kg liveweight / head"
          },
          "value": 700
        },
        {
          "@type": "Property",
          "term": {
            "@type": "Term",
            "@id": "liveweightGain",
            "units": "kg liveweight / head / day"
          },
          "value": 0.4
        }
      ]
    },
    {
      "@type": "Animal",
      "term": {
        "@type": "Term",
        "@id": "beefCattleCalfWeaned",
        "termType": "liveAnimal",
        "units": "number"
      },
      "value": 4,
      "referencePeriod": "average",
      "properties": [
        {
          "@type": "Property",
          "term": {
            "@type": "Term",
            "@id": "liveweightPerHead",
            "units": "kg liveweight / head"
          },
          "value": 240
        },
        {
          "@type": "Property",
          "term": {
            "@type": "Term",
            "@id": "weightAtMaturity",
            "units": "kg liveweight / head"
          },
          "value": 590
        },
        {
          "@type": "Property",
          "term": {
            "@type": "Term",
            "@id": "liveweightGain",
            "units": "kg liveweight / head / day"
          },
          "value": 0.8
        }
      ]
    }
  ],
  "practices": [
    {
      "@type": "Practice",
      "term": {
        "@type": "Term",
        "@id": "confinedPastureSystem",
        "termType": "system",
        "units": "%"
      },
      "value": [
        100
      ]
    },
    {
      "@type": "Practice",
      "term": {
        "@type": "Term",
        "@id": "pastureGrass",
        "termType": "landUseManagement",
        "units": "%"
      },
      "key": {
        "@type": "Term",
        "@id": "surinameGrassPlant",
        "termType": "forage"
      },
      "value": [
        60
      ]
    },
    {
      "@type": "Practice",
      "term": {
        "@type": "Term",
        "@id": "pastureGrass",
        "termType": "landUseManagement",
        "units": "%"
      },
      "key": {
        "@type": "Term",
        "@id": "alangAlangPlant",
        "termType": "forage"
      },
      "value": [
        40
      ]
    }
  ],
  "dataPrivate": true,
  "defaultMethodClassificationDescription": "description"
}
