{
  "id": "fake-cycle",
  "type": "Cycle",
  "functionalUnit": "1 ha",
  "defaultSource": {
    "id": "fake-source",
    "type": "Source"
  },
  "site": {
    "id": "fake-site",
    "type": "Site"
  },
  "startDate": "1968-12",
  "startDateDefinition": "sowing date",
  "endDate": "2008-12",
  "cycleDuration": 182.5,
  "inputs": [
    {
      "term": {
        "@type": "Term",
        "name": "Seed",
        "termType": "other",
        "@id": "seed",
        "units": "kg"
      },
      "value": [
        40
      ],
      "@type": "Input"
    },
    {
      "term": {
        "@type": "Term",
        "name": "Diesel",
        "termType": "fuel",
        "@id": "diesel",
        "units": "kg"
      },
      "value": [
        8.148
      ],
      "operation": {
        "@type": "Term",
        "name": "Ploughing, machine unspecified",
        "termType": "operation",
        "@id": "ploughingMachineUnspecified",
        "units": "hour"
      },
      "@type": "Input"
    },
    {
      "term": {
        "@type": "Term",
        "name": "Diesel",
        "termType": "fuel",
        "@id": "diesel",
        "units": "kg"
      },
      "value": [
        10
      ],
      "operation": {
        "@type": "Term",
        "name": "Harvesting, machine unspecified",
        "termType": "operation",
        "@id": "harvestingMachineUnspecified",
        "units": "hour"
      },
      "@type": "Input"
    },
    {
      "term": {
        "@type": "Term",
        "name": "Diesel",
        "termType": "fuel",
        "@id": "diesel",
        "units": "kg"
      },
      "value": [
        10
      ],
      "fromCycle": true,
      "@type": "Input"
    },
    {
      "term": {
        "@type": "Term",
        "name": "Urea (kg N)",
        "termType": "inorganicFertiliser",
        "@id": "ureaKgN",
        "units": "kg N"
      },
      "value": [
        70
      ],
      "@type": "Input"
    },
    {
      "term": {
        "@type": "Term",
        "name": "Herbicide unspecified (AI)",
        "termType": "pesticideAI",
        "@id": "herbicideUnspecifiedAi",
        "units": "kg active ingredient"
      },
      "value": [
        1.8
      ],
      "@type": "Input"
    },
    {
      "@type": "Input",
      "term": {
        "@id": "24EpibrassinolideTgai",
        "@type": "Term",
        "termType": "pesticideBrandName"
      },
      "value": [
        10
      ],
      "startDate": "1969",
      "endDate": "1970",
      "properties": [
        {
          "@type": "Property",
          "term": {
            "@id": "activeIngredient",
            "@type": "Term"
          },
          "value": 10,
          "key": {
            "@id": "CAS-78821-43-9",
            "@type": "Term",
            "termType": "pesticideAI"
          }
        }
      ]
    },
    {
      "@type": "Input",
      "term": {
        "@id": "24EpibrassinolideTgai",
        "@type": "Term",
        "termType": "pesticideBrandName"
      },
      "value": [
        100
      ],
      "startDate": "1970"
    }
  ],
  "dataPrivate": false,
  "name": "fake cycle",
  "completeness": {
    "electricityFuel": true,
    "material": true,
    "fertiliser": true,
    "other": true,
    "soilAmendments": true,
    "pesticidesAntibiotics": true,
    "water": true,
    "products": true,
    "cropResidue": true,
    "animalFeed": true,
    "@type": "Completeness",
    "transport": false,
    "excreta": true,
    "waste": true,
    "liveAnimals": true,
    "operations": true
  },
  "defaultMethodClassification": "modelled",
  "defaultMethodClassificationDescription": "description"
}
