[
  {
    "@type": "Product",
    "term": {
      "@id": "aboveGroundCropResidueTotal",
      "@type": "Term",
      "termType": "cropResidue"
    },
    "properties": [
      {
        "@type": "Property",
        "term": {
          "@type": "Term",
          "@id": "nitrogenContent"
        },
        "value": 0.737170474516696,
        "methodModel": {
          "@type": "Term",
          "@id": "ipcc2019"
        }
      }
    ]
  },
  {
    "@type": "Product",
    "term": {
      "@id": "belowGroundCropResidue",
      "@type": "Term",
      "termType": "cropResidue"
    },
    "properties": [
      {
        "@type": "Property",
        "term": {
          "@type": "Term",
          "@id": "nitrogenContent"
        },
        "value": 0.7653440260856154,
        "methodModel": {
          "@type": "Term",
          "@id": "ipcc2019"
        }
      }
    ]
  }
]
