{
  "@type": "Indicator",
  "term": {
    "@type": "Term",
    "@id": "damageToFreshwaterEcosystemsFreshwaterEcotoxicity"
  },
  "methodModel": {
    "@type": "Term",
    "@id": "lcImpactCertainEffects100Years"
  },
  "value": 0.000022244109910054798
}
