[
  {
    "@type": "Emission",
    "term": {
      "@id": "ch4ToAirExcreta",
      "@type": "Term",
      "name": "CH4, to air, excreta",
      "units": "kg CH4",
      "termType": "emission"
    },
    "value": [
      8.7
    ],
    "methodModel": {
      "@id": "emepEea2019",
      "@type": "Term",
      "name": "EMEA-EEA (2019)",
      "termType": "model"
    },
    "methodTier": "tier 2",
    "transformation": {
      "@id": "compostingInVessel",
      "@type": "Term",
      "name": "Composting - In Vessel",
      "termType": "excretaManagement"
    }
  }
]
