[
  {
    "@type": "Product",
    "term": {
      "@type": "Term",
      "@id": "aboveGroundCropResidueTotal"
    },
    "value": [
      51.9
    ],
    "model": {
      "@type": "Term",
      "@id": "ipcc2019"
    }
  }
]
