[
  {
    "@type": "Measurement",
    "term": {
      "@type": "Term",
      "@id": "organicCarbonPerHa"
    },
    "method": {
      "@type": "Term",
      "@id": "ipcc2019"
    },
    "value": [
      63736.58111962668
    ],
    "depthUpper": 0,
    "depthLower": 30,
    "dates": [
      "1963-12-31"
    ],
    "methodClassification": "tier 2 model"
  },
  {
    "@type": "Measurement",
    "term": {
      "@type": "Term",
      "@id": "organicCarbonPerHa"
    },
    "method": {
      "@type": "Term",
      "@id": "ipcc2019"
    },
    "value": [
      63783.10012861139
    ],
    "depthUpper": 0,
    "depthLower": 30,
    "dates": [
      "1964-12-31"
    ],
    "methodClassification": "tier 2 model"
  },
  {
    "@type": "Measurement",
    "term": {
      "@type": "Term",
      "@id": "organicCarbonPerHa"
    },
    "method": {
      "@type": "Term",
      "@id": "ipcc2019"
    },
    "value": [
      64011.936312065416
    ],
    "depthUpper": 0,
    "depthLower": 30,
    "dates": [
      "1965-12-31"
    ],
    "methodClassification": "tier 2 model"
  },
  {
    "@type": "Measurement",
    "term": {
      "@type": "Term",
      "@id": "organicCarbonPerHa"
    },
    "method": {
      "@type": "Term",
      "@id": "ipcc2019"
    },
    "value": [
      63497.932414376395
    ],
    "depthUpper": 0,
    "depthLower": 30,
    "dates": [
      "1966-12-31"
    ],
    "methodClassification": "tier 2 model"
  },
  {
    "@type": "Measurement",
    "term": {
      "@type": "Term",
      "@id": "organicCarbonPerHa"
    },
    "method": {
      "@type": "Term",
      "@id": "ipcc2019"
    },
    "value": [
      63891.7344953214
    ],
    "depthUpper": 0,
    "depthLower": 30,
    "dates": [
      "1967-12-31"
    ],
    "methodClassification": "tier 2 model"
  },
  {
    "@type": "Measurement",
    "term": {
      "@type": "Term",
      "@id": "organicCarbonPerHa"
    },
    "method": {
      "@type": "Term",
      "@id": "ipcc2019"
    },
    "value": [
      63273.06214028541
    ],
    "depthUpper": 0,
    "depthLower": 30,
    "dates": [
      "1968-12-31"
    ],
    "methodClassification": "tier 2 model"
  },
  {
    "@type": "Measurement",
    "term": {
      "@type": "Term",
      "@id": "organicCarbonPerHa"
    },
    "method": {
      "@type": "Term",
      "@id": "ipcc2019"
    },
    "value": [
      63573.68833394247
    ],
    "depthUpper": 0,
    "depthLower": 30,
    "dates": [
      "1969-12-31"
    ],
    "methodClassification": "tier 2 model"
  },
  {
    "@type": "Measurement",
    "term": {
      "@type": "Term",
      "@id": "organicCarbonPerHa"
    },
    "method": {
      "@type": "Term",
      "@id": "ipcc2019"
    },
    "value": [
      63708.38732800743
    ],
    "depthUpper": 0,
    "depthLower": 30,
    "dates": [
      "1970-12-31"
    ],
    "methodClassification": "tier 2 model"
  },
  {
    "@type": "Measurement",
    "term": {
      "@type": "Term",
      "@id": "organicCarbonPerHa"
    },
    "method": {
      "@type": "Term",
      "@id": "ipcc2019"
    },
    "value": [
      63367.21954554684
    ],
    "depthUpper": 0,
    "depthLower": 30,
    "dates": [
      "1971-12-31"
    ],
    "methodClassification": "tier 2 model"
  },
  {
    "@type": "Measurement",
    "term": {
      "@type": "Term",
      "@id": "organicCarbonPerHa"
    },
    "method": {
      "@type": "Term",
      "@id": "ipcc2019"
    },
    "value": [
      63510.41810267028
    ],
    "depthUpper": 0,
    "depthLower": 30,
    "dates": [
      "1972-12-31"
    ],
    "methodClassification": "tier 2 model"
  },
  {
    "@type": "Measurement",
    "term": {
      "@type": "Term",
      "@id": "organicCarbonPerHa"
    },
    "method": {
      "@type": "Term",
      "@id": "ipcc2019"
    },
    "value": [
      63180.51747445729
    ],
    "depthUpper": 0,
    "depthLower": 30,
    "dates": [
      "1973-12-31"
    ],
    "methodClassification": "tier 2 model"
  },
  {
    "@type": "Measurement",
    "term": {
      "@type": "Term",
      "@id": "organicCarbonPerHa"
    },
    "method": {
      "@type": "Term",
      "@id": "ipcc2019"
    },
    "value": [
      62775.20698927616
    ],
    "depthUpper": 0,
    "depthLower": 30,
    "dates": [
      "1974-12-31"
    ],
    "methodClassification": "tier 2 model"
  },
  {
    "@type": "Measurement",
    "term": {
      "@type": "Term",
      "@id": "organicCarbonPerHa"
    },
    "method": {
      "@type": "Term",
      "@id": "ipcc2019"
    },
    "value": [
      63030.393744142995
    ],
    "depthUpper": 0,
    "depthLower": 30,
    "dates": [
      "1975-12-31"
    ],
    "methodClassification": "tier 2 model"
  },
  {
    "@type": "Measurement",
    "term": {
      "@type": "Term",
      "@id": "organicCarbonPerHa"
    },
    "method": {
      "@type": "Term",
      "@id": "ipcc2019"
    },
    "value": [
      63133.56506870498
    ],
    "depthUpper": 0,
    "depthLower": 30,
    "dates": [
      "1976-12-31"
    ],
    "methodClassification": "tier 2 model"
  },
  {
    "@type": "Measurement",
    "term": {
      "@type": "Term",
      "@id": "organicCarbonPerHa"
    },
    "method": {
      "@type": "Term",
      "@id": "ipcc2019"
    },
    "value": [
      63126.426285594156
    ],
    "depthUpper": 0,
    "depthLower": 30,
    "dates": [
      "1977-12-31"
    ],
    "methodClassification": "tier 2 model"
  },
  {
    "@type": "Measurement",
    "term": {
      "@type": "Term",
      "@id": "organicCarbonPerHa"
    },
    "method": {
      "@type": "Term",
      "@id": "ipcc2019"
    },
    "value": [
      62889.58215675785
    ],
    "depthUpper": 0,
    "depthLower": 30,
    "dates": [
      "1978-12-31"
    ],
    "methodClassification": "tier 2 model"
  },
  {
    "@type": "Measurement",
    "term": {
      "@type": "Term",
      "@id": "organicCarbonPerHa"
    },
    "method": {
      "@type": "Term",
      "@id": "ipcc2019"
    },
    "value": [
      62827.57300260901
    ],
    "depthUpper": 0,
    "depthLower": 30,
    "dates": [
      "1979-12-31"
    ],
    "methodClassification": "tier 2 model"
  },
  {
    "@type": "Measurement",
    "term": {
      "@type": "Term",
      "@id": "organicCarbonPerHa"
    },
    "method": {
      "@type": "Term",
      "@id": "ipcc2019"
    },
    "value": [
      62966.12792129829
    ],
    "depthUpper": 0,
    "depthLower": 30,
    "dates": [
      "1980-12-31"
    ],
    "methodClassification": "tier 2 model"
  },
  {
    "@type": "Measurement",
    "term": {
      "@type": "Term",
      "@id": "organicCarbonPerHa"
    },
    "method": {
      "@type": "Term",
      "@id": "ipcc2019"
    },
    "value": [
      62930.89248202625
    ],
    "depthUpper": 0,
    "depthLower": 30,
    "dates": [
      "1981-12-31"
    ],
    "methodClassification": "tier 2 model"
  },
  {
    "@type": "Measurement",
    "term": {
      "@type": "Term",
      "@id": "organicCarbonPerHa"
    },
    "method": {
      "@type": "Term",
      "@id": "ipcc2019"
    },
    "value": [
      62958.66694001944
    ],
    "depthUpper": 0,
    "depthLower": 30,
    "dates": [
      "1982-12-31"
    ],
    "methodClassification": "tier 2 model"
  },
  {
    "@type": "Measurement",
    "term": {
      "@type": "Term",
      "@id": "organicCarbonPerHa"
    },
    "method": {
      "@type": "Term",
      "@id": "ipcc2019"
    },
    "value": [
      62757.6571194538
    ],
    "depthUpper": 0,
    "depthLower": 30,
    "dates": [
      "1983-12-31"
    ],
    "methodClassification": "tier 2 model"
  }
]
