{
  "@type": "Indicator",
  "term": {
    "@id": "damageToMarineEcosystemsSpeciesYear",
    "@type": "Term"
  },
  "methodModel": {
    "@id": "recipe2016Individualist",
    "@type": "Term"
  },
  "value": 1.7e-9
}
